{
    "totalPages": 2,
    "totalElements": 12,
    "size": 10,
    "number": 2,
    "parameter": {},
    "data": [
        {
            "uid": "11ajdfjie22ij2",
            "tagname": "第十一篇文章",
            "nickname": "22",
            "phone": "13444",
            "babynick": "dd",
            "age": 33
        },
        {
            "uid": "er3r",
            "tagname": "第十一篇文章",
            "nickname": "22",
            "phone": "13444",
            "babynick": "dd",
            "age": 33
        }
    ]
}