{
    "totalPages": 2,
    "totalElements": 13,
    "size": 10,
    "number": 2,
    "parameter": {},
    "data": [
        {
            "id": "11ajdfjie22ij2",
            "type": "一级",
            "name": "鱼儿",
            "isalive": "1"
        },
        {
            "id": "11ajdfjie22ij2",
            "type": "二级",
            "name": "哺乳",
            "isalive": "0"
        },
        {
            "id": "11ajdfjie22ij2",
            "type": "二级",
            "name": "问答",
            "isalive": "1"
        }
    ]
}