{
"totalPages":2,
"totalElements":13,
"size": 10,
"number": 2,
"parameter":{"searchVersion":""},
"data":
    [
        {"id":"24wrw5rr42535","version":"1.3.11","tip":"测试1","updateTime":"2013-02-02 12:34:49","online":"1"},
        {"id":"2443545fferrrf535","version":"1.3.12","tip":"测试1","updateTime":"2013-02-02 12:34:49","online":"1"},
        {"id":"24wrw5rwefvdss35","version":"1.3.13","tip":"测试1","updateTime":"2013-02-02 12:34:49","online":"1"}
    ]
}